index,#,Target,Range,Speed,Max,Formula,Comments
0,1,50,20,6,100,50,Intro
1,2,25,10,6,100,25,-
2,3,15,5,6,100,15,-
3,4,60,10,5,100,60,-
4,5,75,3,5,100,75,-
5,6,25,5,5,100,25,-
6,7,55,2,6,100,55,-
7,8,65,10,6,100,65,Edgy
8,9,15,2,3,100,15,-
9,10,90,5,2,100,90,-
10,11,10,1,5,100,10,-
11,12,50,5,3,100,50,-
12,13,43,5,8,100,43,-
13,14,50,0,8,100,50,-
14,15,55,10,2,100,55,Fast
15,16,75,5,3,100,75,-
16,17,45,3,2,100,45,-
17,18,95,3,2,100,95,-
18,19,50,2,2,100,50,-
19,20,25,1,3,100,25,-
20,21,40,0,2,100,40,-
21,22,55,2,6,100,55,Accuracy
22,23,25,2,6,100,25,-
23,24,75,5,5,100,75,-
24,25,15,2,5,100,15,-
25,26,60,0,4,100,60,-
26,27,35,5,4,100,35,-
27,28,80,0,3,100,80,-
28,29,42,1,2,100,42,-
29,30,87,0,1,100,87,-
30,31,59,2,6,100,55,Accuracy
31,32,29,2,6,100,25,-
32,33,94,5,5,100,75,-
33,34,19,2,5,100,15,-
34,35,61,0,4,100,60,-
35,36,28,5,4,100,35,-
36,37,73,0,3,100,80,-
37,38,38,1,2,100,42,-
38,39,92,0,1,100,87,-
39,40,58,2,6,100,55,Accuracy
40,41,22,2,6,100,25,-
41,42,72,5,5,100,75,-
42,43,12,2,5,100,15,-
43,44,58,0,4,100,60,-
44,45,32,5,4,100,35,-
45,46,78,0,3,100,80,-
46,47,38,1,2,100,42,-
47,48,82,0,1,100,87,-
48,49,25,2,1,100,25,Fast Acc
49,50,50,1,2,100,50,-
50,51,76,0,2,100,76,-
51,52,54,2,1,100,54,-
52,53,34,3,2,100,34,-
53,54,67,1,2,100,67,-
54,55,80,0,1,100,80,-
55,56,25,2,2,100,25,-
56,57,34,1,2,100,34,-
57,58,99,0,1,100,99,-
58,59,100,10,6,200,50,Intro
59,60,50,10,6,200,25,-
60,61,30,5,6,200,15,-
61,62,120,10,5,200,60,-
62,63,150,3,5,200,75,-
63,64,50,5,5,200,25,-
64,65,110,2,6,200,55,-
65,66,130,10,6,200,65,Edgy
66,67,30,2,3,200,15,-
67,68,180,5,2,200,90,-
68,69,20,1,5,200,10,-
69,70,100,5,3,200,50,-
70,71,86,5,8,200,43,-
71,72,100,0,8,200,50,-
72,73,110,10,2,200,55,Fast
73,74,150,5,3,200,75,-
74,75,90,3,2,200,45,-
75,76,190,3,2,200,95,-
76,77,100,2,2,200,50,-
77,78,50,1,3,200,25,-
78,79,80,0,2,200,40,-
79,80,110,2,6,200,55,Accuracy
80,81,50,2,6,200,25,-
81,82,150,5,5,200,75,-
82,83,30,2,5,200,15,-
83,84,120,0,4,200,60,-
84,85,70,5,4,200,35,-
85,86,160,0,3,200,80,-
86,87,84,1,2,200,42,-
87,88,174,0,1,200,87,-
88,89,118,2,6,200,59,Accuracy
89,90,58,2,6,200,29,-
90,91,188,5,5,200,94,-
91,92,38,2,5,200,19,-
92,93,122,0,4,200,61,-
93,94,56,5,4,200,28,-
94,95,146,0,3,200,73,-
95,96,76,1,2,200,38,-
96,97,184,0,1,200,92,-
97,98,116,2,6,200,58,Accuracy
98,99,44,2,6,200,22,-
99,100,144,5,5,200,72,-
100,101,24,2,5,200,12,-
101,102,116,0,4,200,58,-
102,103,64,5,4,200,32,-
103,104,156,0,3,200,78,-
104,105,76,1,2,200,38,-
105,106,164,0,1,200,82,-
106,107,50,2,1,200,25,Fast Acc
107,108,100,1,2,200,50,-
108,109,152,0,2,200,76,-
109,110,108,2,1,200,54,-
110,111,68,3,2,200,34,-
111,112,134,1,2,200,67,-
112,113,160,0,1,200,80,-
113,114,50,2,2,200,25,-
114,115,68,1,2,200,34,-
115,116,198,0,1,200,99,-
116,117,250,10,6,500,50,Intro
117,118,125,10,6,500,25,-
118,119,75,5,6,500,15,-
119,120,300,10,5,500,60,-
120,121,375,3,5,500,75,-
121,122,125,5,5,500,25,-
122,123,275,2,6,500,55,-
123,124,325,10,6,500,65,Edgy
124,125,75,2,3,500,15,-
125,126,450,5,2,500,90,-
126,127,50,1,5,500,10,-
127,128,250,5,3,500,50,-
128,129,215,5,8,500,43,-
129,130,250,0,8,500,50,-
130,131,275,10,2,500,55,Fast
131,132,375,5,3,500,75,-
132,133,225,3,2,500,45,-
133,134,475,3,2,500,95,-
134,135,250,2,2,500,50,-
135,136,125,1,3,500,25,-
136,137,200,0,2,500,40,-
137,138,275,2,6,500,55,Accuracy
138,139,125,2,6,500,25,-
139,140,375,5,5,500,75,-
140,141,75,2,5,500,15,-
141,142,300,0,4,500,60,-
142,143,175,5,4,500,35,-
143,144,400,0,3,500,80,-
144,145,210,1,2,500,42,-
145,146,435,0,1,500,87,-
146,147,295,2,6,500,59,Accuracy
147,148,145,2,6,500,29,-
148,149,470,5,5,500,94,-
149,150,95,2,5,500,19,-
150,151,305,0,4,500,61,-
151,152,140,5,4,500,28,-
152,153,365,0,3,500,73,-
153,154,190,1,2,500,38,-
154,155,460,0,1,500,92,-
155,156,290,2,6,500,58,Accuracy
156,157,110,2,6,500,22,-
157,158,360,5,5,500,72,-
158,159,60,2,5,500,12,-
159,160,290,0,4,500,58,-
160,161,160,5,4,500,32,-
161,162,390,0,3,500,78,-
162,163,190,1,2,500,38,-
163,164,410,0,1,500,82,-
164,165,125,2,1,500,25,Fast Acc
165,166,250,1,2,500,50,-
166,167,380,0,2,500,76,-
167,168,270,2,1,500,54,-
168,169,170,3,2,500,34,-
169,170,335,1,2,500,67,-
170,171,400,0,1,500,80,-
171,172,125,2,2,500,25,-
172,173,170,1,2,500,34,-
173,174,495,0,1,500,99,-
174,175,500,10,6,1000,50,Intro
175,176,250,10,6,1000,25,-
176,177,150,5,6,1000,15,-
177,178,600,10,5,1000,60,-
178,179,750,3,5,1000,75,-
179,180,250,5,5,1000,25,-
180,181,550,2,6,1000,55,-
181,182,650,10,6,1000,65,Edgy
182,183,150,2,3,1000,15,-
183,184,900,5,2,1000,90,-
184,185,100,1,5,1000,10,-
185,186,500,5,3,1000,50,-
186,187,430,5,8,1000,43,-
187,188,500,0,8,1000,50,-
188,189,550,10,2,1000,55,Fast
189,190,750,5,3,1000,75,-
190,191,450,3,2,1000,45,-
191,192,950,3,2,1000,95,-
192,193,500,2,2,1000,50,-
193,194,250,1,3,1000,25,-
194,195,400,0,2,1000,40,-
195,196,550,2,6,1000,55,Accuracy
196,197,250,2,6,1000,25,-
197,198,750,5,5,1000,75,-
198,199,150,2,5,1000,15,-
199,200,600,0,4,1000,60,-
200,201,350,5,4,1000,35,-
201,202,800,0,3,1000,80,-
202,203,420,1,2,1000,42,-
203,204,870,0,1,1000,87,-
204,205,590,2,6,1000,59,Accuracy
205,206,290,2,6,1000,29,-
206,207,940,5,5,1000,94,-
207,208,190,2,5,1000,19,-
208,209,610,0,4,1000,61,-
209,210,280,5,4,1000,28,-
210,211,730,0,3,1000,73,-
211,212,380,1,2,1000,38,-
212,213,920,0,1,1000,92,-
213,214,580,2,6,1000,58,Accuracy
214,215,220,2,6,1000,22,-
215,216,720,5,5,1000,72,-
216,217,120,2,5,1000,12,-
217,218,580,0,4,1000,58,-
218,219,320,5,4,1000,32,-
219,220,780,0,3,1000,78,-
220,221,380,1,2,1000,38,-
221,222,820,0,1,1000,82,-
222,223,250,2,1,1000,25,Fast Acc
223,224,500,1,2,1000,50,-
224,225,760,0,2,1000,76,-
225,226,540,2,1,1000,54,-
226,227,340,3,2,1000,34,-
227,228,670,1,2,1000,67,-
228,229,800,0,1,1000,80,-
229,230,250,2,2,1000,25,-
230,231,340,1,2,1000,34,-
231,232,990,0,1,1000,99,-
232,233,1250,10,6,2500,50,Intro
233,234,625,10,6,2500,25,-
234,235,375,5,6,2500,15,-
235,236,1500,10,5,2500,60,-
236,237,1875,3,5,2500,75,-
237,238,625,5,5,2500,25,-
238,239,1375,2,6,2500,55,-
239,240,1625,10,6,2500,65,Edgy
240,241,375,2,3,2500,15,-
241,242,2250,5,2,2500,90,-
242,243,250,1,5,2500,10,-
243,244,1250,5,3,2500,50,-
244,245,1075,5,8,2500,43,-
245,246,1250,0,8,2500,50,-
246,247,1375,10,2,2500,55,Fast
247,248,1875,5,3,2500,75,-
248,249,1125,3,2,2500,45,-
249,250,2375,3,2,2500,95,-
250,251,1250,2,2,2500,50,-
251,252,625,1,3,2500,25,-
252,253,1000,0,2,2500,40,-
253,254,1375,2,6,2500,55,Accuracy
254,255,625,2,6,2500,25,-
255,256,1875,5,5,2500,75,-
256,257,375,2,5,2500,15,-
257,258,1500,0,4,2500,60,-
258,259,875,5,4,2500,35,-
259,260,2000,0,3,2500,80,-
260,261,1050,1,2,2500,42,-
261,262,2175,0,1,2500,87,-
262,263,1475,2,6,2500,59,Accuracy
263,264,725,2,6,2500,29,-
264,265,2350,5,5,2500,94,-
265,266,475,2,5,2500,19,-
266,267,1525,0,4,2500,61,-
267,268,700,5,4,2500,28,-
268,269,1825,0,3,2500,73,-
269,270,950,1,2,2500,38,-
270,271,2300,0,1,2500,92,-
271,272,1450,2,6,2500,58,Accuracy
272,273,550,2,6,2500,22,-
273,274,1800,5,5,2500,72,-
274,275,300,2,5,2500,12,-
275,276,1450,0,4,2500,58,-
276,277,800,5,4,2500,32,-
277,278,1950,0,3,2500,78,-
278,279,950,1,2,2500,38,-
279,280,2050,0,1,2500,82,-
280,281,625,2,1,2500,25,Fast Acc
281,282,1250,1,2,2500,50,-
282,283,1900,0,2,2500,76,-
283,284,1350,2,1,2500,54,-
284,285,850,3,2,2500,34,-
285,286,1675,1,2,2500,67,-
286,287,2000,0,1,2500,80,-
287,288,625,2,2,2500,25,-
288,289,850,1,2,2500,34,-
289,290,2475,0,1,2500,99,-
290,291,2500,10,6,5000,50,Intro
291,292,1250,10,6,5000,25,-
292,293,750,5,6,5000,15,-
293,294,3000,10,5,5000,60,-
294,295,3750,3,5,5000,75,-
295,296,1250,5,5,5000,25,-
296,297,2750,2,6,5000,55,-
297,298,3250,10,6,5000,65,Edgy
298,299,750,2,3,5000,15,-
299,300,4500,5,2,5000,90,-
300,301,500,1,5,5000,10,-
301,302,2500,5,3,5000,50,-
302,303,2150,5,8,5000,43,-
303,304,2500,0,8,5000,50,-
304,305,2750,10,2,5000,55,Fast
305,306,3750,5,3,5000,75,-
306,307,2250,3,2,5000,45,-
307,308,4750,3,2,5000,95,-
308,309,2500,2,2,5000,50,-
309,310,1250,1,3,5000,25,-
310,311,2000,0,2,5000,40,-
311,312,2750,2,6,5000,55,Accuracy
312,313,1250,2,6,5000,25,-
313,314,3750,5,5,5000,75,-
314,315,750,2,5,5000,15,-
315,316,3000,0,4,5000,60,-
316,317,1750,5,4,5000,35,-
317,318,4000,0,3,5000,80,-
318,319,2100,1,2,5000,42,-
319,320,4350,0,1,5000,87,-
320,321,2950,2,6,5000,59,Accuracy
321,322,1450,2,6,5000,29,-
322,323,4700,5,5,5000,94,-
323,324,950,2,5,5000,19,-
324,325,3050,0,4,5000,61,-
325,326,1400,5,4,5000,28,-
326,327,3650,0,3,5000,73,-
327,328,1900,1,2,5000,38,-
328,329,4600,0,1,5000,92,-
329,330,2900,2,6,5000,58,Accuracy
330,331,1100,2,6,5000,22,-
331,332,3600,5,5,5000,72,-
332,333,600,2,5,5000,12,-
333,334,2900,0,4,5000,58,-
334,335,1600,5,4,5000,32,-
335,336,3900,0,3,5000,78,-
336,337,1900,1,2,5000,38,-
337,338,4100,0,1,5000,82,-
338,339,1250,2,1,5000,25,Fast Acc
339,340,2500,1,2,5000,50,-
340,341,3800,0,2,5000,76,-
341,342,2700,2,1,5000,54,-
342,343,1700,3,2,5000,34,-
343,344,3350,1,2,5000,67,-
344,345,4000,0,1,5000,80,-
345,346,1250,2,2,5000,25,-
346,347,1700,1,2,5000,34,-
347,348,4950,0,1,5000,99,-
348,349,5000,10,6,9999,50,Intro
349,350,2500,10,6,9999,25,-
350,351,1500,5,6,9999,15,-
351,352,5999,10,5,9999,60,-
352,353,7499,3,5,9999,75,-
353,354,2500,5,5,9999,25,-
354,355,5499,2,6,9999,55,-
355,356,6499,10,6,9999,65,Edgy
356,357,1500,2,3,9999,15,-
357,358,8999,5,2,9999,90,-
358,359,1000,1,5,9999,10,-
359,360,5000,5,3,9999,50,-
360,361,4300,5,8,9999,43,-
361,362,5000,0,8,9999,50,-
362,363,5499,10,2,9999,55,Fast
363,364,7499,5,3,9999,75,-
364,365,4500,3,2,9999,45,-
365,366,9499,3,2,9999,95,-
366,367,5000,2,2,9999,50,-
367,368,2500,1,3,9999,25,-
368,369,4000,0,2,9999,40,-
369,370,5499,2,6,9999,55,Accuracy
370,371,2500,2,6,9999,25,-
371,372,7499,5,5,9999,75,-
372,373,1500,2,5,9999,15,-
373,374,5999,0,4,9999,60,-
374,375,3500,5,4,9999,35,-
375,376,7999,0,3,9999,80,-
376,377,4200,1,2,9999,42,-
377,378,8699,0,1,9999,87,-
378,379,5899,2,6,9999,59,Accuracy
379,380,2900,2,6,9999,29,-
380,381,9399,5,5,9999,94,-
381,382,1900,2,5,9999,19,-
382,383,6099,0,4,9999,61,-
383,384,2800,5,4,9999,28,-
384,385,7299,0,3,9999,73,-
385,386,3800,1,2,9999,38,-
386,387,9199,0,1,9999,92,-
387,388,5799,2,6,9999,58,Accuracy
388,389,2200,2,6,9999,22,-
389,390,7199,5,5,9999,72,-
390,391,1200,2,5,9999,12,-
391,392,5799,0,4,9999,58,-
392,393,3200,5,4,9999,32,-
393,394,7799,0,3,9999,78,-
394,395,3800,1,2,9999,38,-
395,396,8199,0,1,9999,82,-
396,397,2500,2,1,9999,25,Fast Acc
397,398,5000,1,2,9999,50,-
398,399,7599,0,2,9999,76,-
399,400,5399,2,1,9999,54,-
400,401,3400,3,2,9999,34,-
401,402,6699,1,2,9999,67,-
402,403,7999,0,1,9999,80,-
403,404,2500,2,2,9999,25,-
404,405,3400,1,2,9999,34,-
405,406,9899,0,1,9999,99,-